%YAML 1.1
%TAG !u! tag:unity3d.com,2011:
--- !u!114 &11400000
MonoBehaviour:
  m_ObjectHideFlags: 0
  m_CorrespondingSourceObject: {fileID: 0}
  m_PrefabInstance: {fileID: 0}
  m_PrefabAsset: {fileID: 0}
  m_GameObject: {fileID: 0}
  m_Enabled: 1
  m_EditorHideFlags: 0
  m_Script: {fileID: 11500000, guid: 709dfb3094ca5a74b817c9f90b8af2b3, type: 3}
  m_Name: Pistol
  m_EditorClassIdentifier: 
  Gunname: Pistol
  Description: 
  firerate: 0
  Damage: 20
